\relax 
\providecommand\hyper@newdestlabel[2]{}
\providecommand\HyperFirstAtBeginDocument{\AtBeginDocument}
\HyperFirstAtBeginDocument{\ifx\hyper@anchor\@undefined
\global\let\oldcontentsline\contentsline
\gdef\contentsline#1#2#3#4{\oldcontentsline{#1}{#2}{#3}}
\global\let\oldnewlabel\newlabel
\gdef\newlabel#1#2{\newlabelxx{#1}#2}
\gdef\newlabelxx#1#2#3#4#5#6{\oldnewlabel{#1}{{#2}{#3}}}
\AtEndDocument{\ifx\hyper@anchor\@undefined
\let\contentsline\oldcontentsline
\let\newlabel\oldnewlabel
\fi}
\fi}
\global\let\hyper@last\relax 
\gdef\HyperFirstAtBeginDocument#1{#1}
\providecommand\HyField@AuxAddToFields[1]{}
\providecommand\HyField@AuxAddToCoFields[2]{}
\@writefile{toc}{\contentsline {section}{Introduction}{2}{section*.2}}
\newlabel{introduction}{{}{2}{Introduction}{section*.2}{}}
\@writefile{toc}{\contentsline {section}{Time Series Analysis}{4}{section*.3}}
\newlabel{time-series-analysis}{{}{4}{Time Series Analysis}{section*.3}{}}
\@writefile{toc}{\contentsline {section}{Lab 0 - Time Series Objects in R}{10}{section*.4}}
\newlabel{lab-0---time-series-objects-in-r}{{}{10}{Lab 0 - Time Series Objects in R}{section*.4}{}}
\@writefile{toc}{\contentsline {section}{Lab 0 bis - The POSIXt Class}{32}{section*.5}}
\newlabel{lab-0-bis---the-posixt-class}{{}{32}{Lab 0 bis - The POSIXt Class}{section*.5}{}}
\gdef \LT@i {\LT@entry 
    {1}{81.16254pt}\LT@entry 
    {1}{143.53084pt}\LT@entry 
    {1}{87.16254pt}\LT@entry 
    {1}{137.53084pt}}
\@writefile{toc}{\contentsline {section}{Lab 1 - Regression Methods}{38}{section*.6}}
\newlabel{lab-1---regression-methods}{{}{38}{Lab 1 - Regression Methods}{section*.6}{}}
\@writefile{toc}{\contentsline {section}{Filters and Time Series Decomposition}{47}{section*.7}}
\newlabel{filters-and-time-series-decomposition}{{}{47}{Filters and Time Series Decomposition}{section*.7}{}}
\@writefile{toc}{\contentsline {section}{Lab 2 - Linear Filtering}{55}{section*.8}}
\newlabel{lab-2---linear-filtering}{{}{55}{Lab 2 - Linear Filtering}{section*.8}{}}
\@writefile{toc}{\contentsline {section}{Stochastic Models For Time Series}{66}{section*.9}}
\newlabel{stochastic-models-for-time-series}{{}{66}{Stochastic Models For Time Series}{section*.9}{}}
\@writefile{toc}{\contentsline {section}{Lab 3 - Autocorrelation}{72}{section*.10}}
\newlabel{lab-3---autocorrelation}{{}{72}{Lab 3 - Autocorrelation}{section*.10}{}}
\@writefile{toc}{\contentsline {section}{Moving Average Processes}{83}{section*.11}}
\newlabel{moving-average-processes}{{}{83}{Moving Average Processes}{section*.11}{}}
\@writefile{toc}{\contentsline {section}{Autoregressive processes}{90}{section*.12}}
\newlabel{autoregressive-processes}{{}{90}{Autoregressive processes}{section*.12}{}}
\@writefile{toc}{\contentsline {section}{Difference Equations and Complex Numbers (Revision)}{97}{section*.13}}
\newlabel{difference-equations-and-complex-numbers-revision}{{}{97}{Difference Equations and Complex Numbers (Revision)}{section*.13}{}}
\@writefile{toc}{\contentsline {section}{Duality between AR and MA}{101}{section*.14}}
\newlabel{duality-between-ar-and-ma}{{}{101}{Duality between AR and MA}{section*.14}{}}
\gdef \LT@ii {\LT@entry 
    {2}{32.94437pt}\LT@entry 
    {2}{123.80617pt}\LT@entry 
    {2}{117.80617pt}}
\@writefile{toc}{\contentsline {section}{Autoregressive Moving Average Models}{107}{section*.15}}
\newlabel{autoregressive-moving-average-models}{{}{107}{Autoregressive Moving Average Models}{section*.15}{}}
\gdef \LT@iii {\LT@entry 
    {2}{58.91724pt}\LT@entry 
    {2}{78.85916pt}\LT@entry 
    {2}{77.87305pt}\LT@entry 
    {2}{72.85916pt}}
\@writefile{toc}{\contentsline {section}{ARIMA and SARIMA Models}{115}{section*.16}}
\newlabel{arima-and-sarima-models}{{}{115}{ARIMA and SARIMA Models}{section*.16}{}}
\@writefile{toc}{\contentsline {section}{Estimation and order selection for ARIMA models}{118}{section*.17}}
\newlabel{estimation-and-order-selection-for-arima-models}{{}{118}{Estimation and order selection for ARIMA models}{section*.17}{}}
\@writefile{toc}{\contentsline {section}{Lab 4 - Identification of the Model and Estimation of Parameters}{125}{section*.18}}
\newlabel{lab-4---identification-of-the-model-and-estimation-of-parameters}{{}{125}{Lab 4 - Identification of the Model and Estimation of Parameters}{section*.18}{}}
\@writefile{toc}{\contentsline {section}{Simple Forecasting Methods}{153}{section*.19}}
\newlabel{simple-forecasting-methods}{{}{153}{Simple Forecasting Methods}{section*.19}{}}
\@writefile{toc}{\contentsline {section}{R Lab: Simple forecasting methods}{158}{section*.20}}
\newlabel{r-lab-simple-forecasting-methods}{{}{158}{R Lab: Simple forecasting methods}{section*.20}{}}
\@writefile{toc}{\contentsline {section}{Forecasting using ARIMA models}{164}{section*.21}}
\newlabel{forecasting-using-arima-models}{{}{164}{Forecasting using ARIMA models}{section*.21}{}}
\@writefile{toc}{\contentsline {section}{Forecasting for ARIMA models}{170}{section*.22}}
\newlabel{forecasting-for-arima-models}{{}{170}{Forecasting for ARIMA models}{section*.22}{}}
